image1,image2
gs://bjorns-hope-images/0.jpg,gs://bjorns-hope-images/1.jpg
gs://bjorns-hope-images/2.jpg,gs://bjorns-hope-images/3.jpg
gs://bjorns-hope-images/0.jpg,gs://bjorns-hope-images/0.gif
gs://bjorns-hope-images/5.jpg,gs://bjorns-hope-images/6.jpg
gs://bjorns-hope-images/5.jpg,gs://bjorns-hope-images/5.jpg